R/Pythonで計量政治学入門 - 13 データの選択
…
13.4 観察の選択

これまでは変数の操作について見てきましたが、次は観察の選択を学びます。つまり、データに含まれる観察の一部だけを取り出して分析する状況を考えます。

13.4.1 不等号による選択

例えば、Polityのデータのうち、第2次世界大戦後のデータを取り出したいとします。

R (base)

df_polity <- read_excel("data/p5v2018.xls")

df_polity[df_polity$year > 1945,]

# A tibble: 9,952 × 37
      p5   cyear ccode scode country      year  flag fragment democ autoc polity
   <dbl>   <dbl> <dbl> <chr> <chr>       <dbl> <dbl>    <dbl> <dbl> <dbl>  <dbl>
 1     0 7001946   700 AFG   Afghanistan  1946     0       NA     0    10    -10
 2     0 7001947   700 AFG   Afghanistan  1947     0       NA     0    10    -10
 3     0 7001948   700 AFG   Afghanistan  1948     0       NA     0    10    -10
 4     0 7001949   700 AFG   Afghanistan  1949     0       NA     0    10    -10
 5     0 7001950   700 AFG   Afghanistan  1950     0       NA     0    10    -10
 6     0 7001951   700 AFG   Afghanistan  1951     0       NA     0    10    -10
 7     0 7001952   700 AFG   Afghanistan  1952     0       NA     0    10    -10
 8     0 7001953   700 AFG   Afghanistan  1953     0       NA     0    10    -10
 9     0 7001954   700 AFG   Afghanistan  1954     0       NA     0    10    -10
10     0 7001955   700 AFG   Afghanistan  1955     0       NA     0    10    -10
# ℹ 9,942 more rows
# ℹ 26 more variables: polity2 <dbl>, durable <dbl>, xrreg <dbl>, xrcomp <dbl>,
#   xropen <dbl>, xconst <dbl>, parreg <dbl>, parcomp <dbl>, exrec <dbl>,
#   exconst <dbl>, polcomp <dbl>, prior <dbl>, emonth <dbl>, eday <dbl>,
#   eyear <dbl>, eprec <dbl>, interim <dbl>, bmonth <dbl>, bday <dbl>,
#   byear <dbl>, bprec <dbl>, post <dbl>, change <dbl>, d5 <dbl>, sf <dbl>,
#   regtrans <dbl>
…
<や>は通常の意味通り、使うことができます。

等号も含む場合は<=や>=とします。

13.4.2 等号による選択

次に、日本だけのデータを取り出したいと思います。=ではなく==（=が2つ）である点に注意してください。

R (base)

df_polity <- read_excel("data/p5v2018.xls")

df_polity[df_polity$country == "Japan",]

# A tibble: 219 × 37
      p5   cyear ccode scode country  year  flag fragment democ autoc polity
   <dbl>   <dbl> <dbl> <chr> <chr>   <dbl> <dbl>    <dbl> <dbl> <dbl>  <dbl>
 1     0 7401800   740 JPN   Japan    1800     0       NA     0    10    -10
 2     0 7401801   740 JPN   Japan    1801     0       NA     0    10    -10
 3     0 7401802   740 JPN   Japan    1802     0       NA     0    10    -10
 4     0 7401803   740 JPN   Japan    1803     0       NA     0    10    -10
 5     0 7401804   740 JPN   Japan    1804     0       NA     0    10    -10
 6     0 7401805   740 JPN   Japan    1805     0       NA     0    10    -10
 7     0 7401806   740 JPN   Japan    1806     0       NA     0    10    -10
 8     0 7401807   740 JPN   Japan    1807     0       NA     0    10    -10
 9     0 7401808   740 JPN   Japan    1808     0       NA     0    10    -10
10     0 7401809   740 JPN   Japan    1809     0       NA     0    10    -10
# ℹ 209 more rows
# ℹ 26 more variables: polity2 <dbl>, durable <dbl>, xrreg <dbl>, xrcomp <dbl>,
#   xropen <dbl>, xconst <dbl>, parreg <dbl>, parcomp <dbl>, exrec <dbl>,
#   exconst <dbl>, polcomp <dbl>, prior <dbl>, emonth <dbl>, eday <dbl>,
#   eyear <dbl>, eprec <dbl>, interim <dbl>, bmonth <dbl>, bday <dbl>,
#   byear <dbl>, bprec <dbl>, post <dbl>, change <dbl>, d5 <dbl>, sf <dbl>,
#   regtrans <dbl>
…
