R/Pythonで計量政治学入門 - 5 二変数の要約
…
\((x_i - \bar{x})(y_i - \bar{y})\)の符号

共分散はそのような\((x_i - \bar{x})(y_i - \bar{y})\)の平均値なので、正の値を取るということは\(x\)と\(y\)が正の比例関係にあり、負の値を取るということは負の比例関係にあるということを示唆しています。

5.1.2 複数変数の選択

それでは、共分散を求めたいと思います。平均値や分散を求めるときは1つの変数をデータフレームから取り出しましたが、共分散の場合は2つ（あるいはそれ以上）の変数を取り出す必要があります。RとPythonではそれぞれ、次のように書きます。

R

df_gap[,c("lifeExp", "gdpPercap")]

# A tibble: 1,704 × 2
   lifeExp gdpPercap
     <dbl>     <dbl>
 1    28.8      779.
 2    30.3      821.
 3    32.0      853.
 4    34.0      836.
 5    36.1      740.
 6    38.4      786.
 7    39.9      978.
 8    40.8      852.
 9    41.7      649.
10    41.8      635.
# ℹ 1,694 more rows
…
── Attaching core tidyverse packages ──────────────────────── tidyverse 2.0.0 ──
✔ dplyr     1.1.4     ✔ readr     2.1.5
✔ forcats   1.0.0     ✔ stringr   1.5.1
✔ ggplot2   3.5.0     ✔ tibble    3.2.1
✔ lubridate 1.9.3     ✔ tidyr     1.3.1
✔ purrr     1.0.2     
── Conflicts ────────────────────────────────────────── tidyverse_conflicts() ──
✖ dplyr::filter() masks stats::filter()
✖ dplyr::lag()    masks stats::lag()
ℹ Use the conflicted package (<http://conflicted.r-lib.org/>) to force all conflicts to become errors

df_gap |> 
    select(lifeExp, gdpPercap)

# A tibble: 1,704 × 2
   lifeExp gdpPercap
     <dbl>     <dbl>
 1    28.8      779.
 2    30.3      821.
 3    32.0      853.
 4    34.0      836.
 5    36.1      740.
 6    38.4      786.
 7    39.9      978.
 8    40.8      852.
 9    41.7      649.
10    41.8      635.
# ℹ 1,694 more rows
…
R

library(tidyverse)

df_gap |> 
    group_by(continent, year) |> 
    summarise(mean_lifeExp = mean(lifeExp), 
              mean_pop = mean(pop), 
              mean_gdpPercap = mean(gdpPercap))

`summarise()` has grouped output by 'continent'. You can override using the
`.groups` argument.

# A tibble: 60 × 5
# Groups:   continent [5]
   continent  year mean_lifeExp  mean_pop mean_gdpPercap
   <fct>     <int>        <dbl>     <dbl>          <dbl>
 1 Africa     1952         39.1  4570010.          1253.
 2 Africa     1957         41.3  5093033.          1385.
 3 Africa     1962         43.3  5702247.          1598.
 4 Africa     1967         45.3  6447875.          2050.
 5 Africa     1972         47.5  7305376.          2340.
 6 Africa     1977         49.6  8328097.          2586.
 7 Africa     1982         51.6  9602857.          2482.
 8 Africa     1987         53.3 11054502.          2283.
 9 Africa     1992         53.6 12674645.          2282.
10 Africa     1997         53.6 14304480.          2379.
# ℹ 50 more rows
…
